^C:\USERS\ANDREA\DOCUMENTS\REPOSITORIES\VISUAL STUDIO\SPACE INVADERS\SPACEINVADERS\ALIEN.CPP|C:\USERS\ANDREA\DOCUMENTS\REPOSITORIES\VISUAL STUDIO\SPACE INVADERS\SPACEINVADERS\ALIENHOARD.CPP|C:\USERS\ANDREA\DOCUMENTS\REPOSITORIES\VISUAL STUDIO\SPACE INVADERS\SPACEINVADERS\ALIENMISSILE.CPP|C:\USERS\ANDREA\DOCUMENTS\REPOSITORIES\VISUAL STUDIO\SPACE INVADERS\SPACEINVADERS\ALIENMISSILES.CPP|C:\USERS\ANDREA\DOCUMENTS\REPOSITORIES\VISUAL STUDIO\SPACE INVADERS\SPACEINVADERS\BGAMEOBJECT.CPP|C:\USERS\ANDREA\DOCUMENTS\REPOSITORIES\VISUAL STUDIO\SPACE INVADERS\SPACEINVADERS\FONT.CPP|C:\USERS\ANDREA\DOCUMENTS\REPOSITORIES\VISUAL STUDIO\SPACE INVADERS\SPACEINVADERS\GAMESTATEFUNCS.CPP|C:\USERS\ANDREA\DOCUMENTS\REPOSITORIES\VISUAL STUDIO\SPACE INVADERS\SPACEINVADERS\MAIN.CPP|C:\USERS\ANDREA\DOCUMENTS\REPOSITORIES\VISUAL STUDIO\SPACE INVADERS\SPACEINVADERS\MOTHERSHIP.CPP|C:\USERS\ANDREA\DOCUMENTS\REPOSITORIES\VISUAL STUDIO\SPACE INVADERS\SPACEINVADERS\PLAYER.CPP|C:\USERS\ANDREA\DOCUMENTS\REPOSITORIES\VISUAL STUDIO\SPACE INVADERS\SPACEINVADERS\PLAYERMISSILE.CPP|C:\USERS\ANDREA\DOCUMENTS\REPOSITORIES\VISUAL STUDIO\SPACE INVADERS\SPACEINVADERS\RENDERFUNCS.CPP|C:\USERS\ANDREA\DOCUMENTS\REPOSITORIES\VISUAL STUDIO\SPACE INVADERS\SPACEINVADERS\SDLWRAPPER.CPP|C:\USERS\ANDREA\DOCUMENTS\REPOSITORIES\VISUAL STUDIO\SPACE INVADERS\SPACEINVADERS\SHIELD.CPP|C:\USERS\ANDREA\DOCUMENTS\REPOSITORIES\VISUAL STUDIO\SPACE INVADERS\SPACEINVADERS\SHIELDARRAY.CPP|C:\USERS\ANDREA\DOCUMENTS\REPOSITORIES\VISUAL STUDIO\SPACE INVADERS\SPACEINVADERS\TEXTURE.CPP|C:\USERS\ANDREA\DOCUMENTS\REPOSITORIES\VISUAL STUDIO\SPACE INVADERS\SPACEINVADERS\TIMER.CPP|C:\USERS\ANDREA\DOCUMENTS\REPOSITORIES\VISUAL STUDIO\SPACE INVADERS\SPACEINVADERS\WINDOW.CPP
C:\USERS\ANDREA\DOCUMENTS\REPOSITORIES\VISUAL STUDIO\SPACE INVADERS\SPACEINVADERS\DEBUG\VC141.PDB
C:\USERS\ANDREA\DOCUMENTS\REPOSITORIES\VISUAL STUDIO\SPACE INVADERS\SPACEINVADERS\DEBUG\VC141.IDB
C:\USERS\ANDREA\DOCUMENTS\REPOSITORIES\VISUAL STUDIO\SPACE INVADERS\SPACEINVADERS\DEBUG\ALIEN.OBJ
C:\USERS\ANDREA\DOCUMENTS\REPOSITORIES\VISUAL STUDIO\SPACE INVADERS\SPACEINVADERS\DEBUG\ALIENHOARD.OBJ
C:\USERS\ANDREA\DOCUMENTS\REPOSITORIES\VISUAL STUDIO\SPACE INVADERS\SPACEINVADERS\DEBUG\ALIENMISSILE.OBJ
C:\USERS\ANDREA\DOCUMENTS\REPOSITORIES\VISUAL STUDIO\SPACE INVADERS\SPACEINVADERS\DEBUG\ALIENMISSILES.OBJ
C:\USERS\ANDREA\DOCUMENTS\REPOSITORIES\VISUAL STUDIO\SPACE INVADERS\SPACEINVADERS\DEBUG\BGAMEOBJECT.OBJ
C:\USERS\ANDREA\DOCUMENTS\REPOSITORIES\VISUAL STUDIO\SPACE INVADERS\SPACEINVADERS\DEBUG\FONT.OBJ
C:\USERS\ANDREA\DOCUMENTS\REPOSITORIES\VISUAL STUDIO\SPACE INVADERS\SPACEINVADERS\DEBUG\GAMESTATEFUNCS.OBJ
C:\USERS\ANDREA\DOCUMENTS\REPOSITORIES\VISUAL STUDIO\SPACE INVADERS\SPACEINVADERS\DEBUG\MAIN.OBJ
C:\USERS\ANDREA\DOCUMENTS\REPOSITORIES\VISUAL STUDIO\SPACE INVADERS\SPACEINVADERS\DEBUG\MOTHERSHIP.OBJ
C:\USERS\ANDREA\DOCUMENTS\REPOSITORIES\VISUAL STUDIO\SPACE INVADERS\SPACEINVADERS\DEBUG\PLAYER.OBJ
C:\USERS\ANDREA\DOCUMENTS\REPOSITORIES\VISUAL STUDIO\SPACE INVADERS\SPACEINVADERS\DEBUG\PLAYERMISSILE.OBJ
C:\USERS\ANDREA\DOCUMENTS\REPOSITORIES\VISUAL STUDIO\SPACE INVADERS\SPACEINVADERS\DEBUG\RENDERFUNCS.OBJ
C:\USERS\ANDREA\DOCUMENTS\REPOSITORIES\VISUAL STUDIO\SPACE INVADERS\SPACEINVADERS\DEBUG\SDLWRAPPER.OBJ
C:\USERS\ANDREA\DOCUMENTS\REPOSITORIES\VISUAL STUDIO\SPACE INVADERS\SPACEINVADERS\DEBUG\SHIELD.OBJ
C:\USERS\ANDREA\DOCUMENTS\REPOSITORIES\VISUAL STUDIO\SPACE INVADERS\SPACEINVADERS\DEBUG\SHIELDARRAY.OBJ
C:\USERS\ANDREA\DOCUMENTS\REPOSITORIES\VISUAL STUDIO\SPACE INVADERS\SPACEINVADERS\DEBUG\TEXTURE.OBJ
C:\USERS\ANDREA\DOCUMENTS\REPOSITORIES\VISUAL STUDIO\SPACE INVADERS\SPACEINVADERS\DEBUG\TIMER.OBJ
C:\USERS\ANDREA\DOCUMENTS\REPOSITORIES\VISUAL STUDIO\SPACE INVADERS\SPACEINVADERS\DEBUG\WINDOW.OBJ
^C:\USERS\ANDREA\DOCUMENTS\REPOSITORIES\VISUAL STUDIO\SPACE INVADERS\SPACEINVADERS\ALIEN.CPP
C:\USERS\ANDREA\DOCUMENTS\REPOSITORIES\VISUAL STUDIO\SPACE INVADERS\SPACEINVADERS\DEBUG\VC141.PDB
^C:\USERS\ANDREA\DOCUMENTS\REPOSITORIES\VISUAL STUDIO\SPACE INVADERS\SPACEINVADERS\ALIENHOARD.CPP
C:\USERS\ANDREA\DOCUMENTS\REPOSITORIES\VISUAL STUDIO\SPACE INVADERS\SPACEINVADERS\DEBUG\VC141.PDB
C:\USERS\ANDREA\DOCUMENTS\REPOSITORIES\VISUAL STUDIO\SPACE INVADERS\SPACEINVADERS\DEBUG\VC141.IDB
C:\USERS\ANDREA\DOCUMENTS\REPOSITORIES\VISUAL STUDIO\SPACE INVADERS\SPACEINVADERS\DEBUG\ALIENHOARD.OBJ
^C:\USERS\ANDREA\DOCUMENTS\REPOSITORIES\VISUAL STUDIO\SPACE INVADERS\SPACEINVADERS\ALIENMISSILE.CPP
C:\USERS\ANDREA\DOCUMENTS\REPOSITORIES\VISUAL STUDIO\SPACE INVADERS\SPACEINVADERS\DEBUG\VC141.PDB
^C:\USERS\ANDREA\DOCUMENTS\REPOSITORIES\VISUAL STUDIO\SPACE INVADERS\SPACEINVADERS\ALIENMISSILES.CPP
C:\USERS\ANDREA\DOCUMENTS\REPOSITORIES\VISUAL STUDIO\SPACE INVADERS\SPACEINVADERS\DEBUG\VC141.PDB
^C:\USERS\ANDREA\DOCUMENTS\REPOSITORIES\VISUAL STUDIO\SPACE INVADERS\SPACEINVADERS\BGAMEOBJECT.CPP
C:\USERS\ANDREA\DOCUMENTS\REPOSITORIES\VISUAL STUDIO\SPACE INVADERS\SPACEINVADERS\DEBUG\VC141.PDB
^C:\USERS\ANDREA\DOCUMENTS\REPOSITORIES\VISUAL STUDIO\SPACE INVADERS\SPACEINVADERS\FONT.CPP
C:\USERS\ANDREA\DOCUMENTS\REPOSITORIES\VISUAL STUDIO\SPACE INVADERS\SPACEINVADERS\DEBUG\VC141.PDB
^C:\USERS\ANDREA\DOCUMENTS\REPOSITORIES\VISUAL STUDIO\SPACE INVADERS\SPACEINVADERS\GAMESTATEFUNCS.CPP
C:\USERS\ANDREA\DOCUMENTS\REPOSITORIES\VISUAL STUDIO\SPACE INVADERS\SPACEINVADERS\DEBUG\VC141.PDB
^C:\USERS\ANDREA\DOCUMENTS\REPOSITORIES\VISUAL STUDIO\SPACE INVADERS\SPACEINVADERS\MAIN.CPP
C:\USERS\ANDREA\DOCUMENTS\REPOSITORIES\VISUAL STUDIO\SPACE INVADERS\SPACEINVADERS\DEBUG\VC141.PDB
C:\USERS\ANDREA\DOCUMENTS\REPOSITORIES\VISUAL STUDIO\SPACE INVADERS\SPACEINVADERS\DEBUG\VC141.IDB
C:\USERS\ANDREA\DOCUMENTS\REPOSITORIES\VISUAL STUDIO\SPACE INVADERS\SPACEINVADERS\DEBUG\MAIN.OBJ
^C:\USERS\ANDREA\DOCUMENTS\REPOSITORIES\VISUAL STUDIO\SPACE INVADERS\SPACEINVADERS\MOTHERSHIP.CPP
C:\USERS\ANDREA\DOCUMENTS\REPOSITORIES\VISUAL STUDIO\SPACE INVADERS\SPACEINVADERS\DEBUG\VC141.PDB
^C:\USERS\ANDREA\DOCUMENTS\REPOSITORIES\VISUAL STUDIO\SPACE INVADERS\SPACEINVADERS\PLAYER.CPP
C:\USERS\ANDREA\DOCUMENTS\REPOSITORIES\VISUAL STUDIO\SPACE INVADERS\SPACEINVADERS\DEBUG\VC141.PDB
^C:\USERS\ANDREA\DOCUMENTS\REPOSITORIES\VISUAL STUDIO\SPACE INVADERS\SPACEINVADERS\PLAYERMISSILE.CPP
C:\USERS\ANDREA\DOCUMENTS\REPOSITORIES\VISUAL STUDIO\SPACE INVADERS\SPACEINVADERS\DEBUG\VC141.PDB
^C:\USERS\ANDREA\DOCUMENTS\REPOSITORIES\VISUAL STUDIO\SPACE INVADERS\SPACEINVADERS\RENDERFUNCS.CPP
C:\USERS\ANDREA\DOCUMENTS\REPOSITORIES\VISUAL STUDIO\SPACE INVADERS\SPACEINVADERS\DEBUG\VC141.PDB
^C:\USERS\ANDREA\DOCUMENTS\REPOSITORIES\VISUAL STUDIO\SPACE INVADERS\SPACEINVADERS\SDLWRAPPER.CPP
C:\USERS\ANDREA\DOCUMENTS\REPOSITORIES\VISUAL STUDIO\SPACE INVADERS\SPACEINVADERS\DEBUG\VC141.PDB
^C:\USERS\ANDREA\DOCUMENTS\REPOSITORIES\VISUAL STUDIO\SPACE INVADERS\SPACEINVADERS\SHIELD.CPP
C:\USERS\ANDREA\DOCUMENTS\REPOSITORIES\VISUAL STUDIO\SPACE INVADERS\SPACEINVADERS\DEBUG\VC141.PDB
^C:\USERS\ANDREA\DOCUMENTS\REPOSITORIES\VISUAL STUDIO\SPACE INVADERS\SPACEINVADERS\SHIELDARRAY.CPP
C:\USERS\ANDREA\DOCUMENTS\REPOSITORIES\VISUAL STUDIO\SPACE INVADERS\SPACEINVADERS\DEBUG\VC141.PDB
^C:\USERS\ANDREA\DOCUMENTS\REPOSITORIES\VISUAL STUDIO\SPACE INVADERS\SPACEINVADERS\TEXTURE.CPP
C:\USERS\ANDREA\DOCUMENTS\REPOSITORIES\VISUAL STUDIO\SPACE INVADERS\SPACEINVADERS\DEBUG\VC141.PDB
^C:\USERS\ANDREA\DOCUMENTS\REPOSITORIES\VISUAL STUDIO\SPACE INVADERS\SPACEINVADERS\TIMER.CPP
C:\USERS\ANDREA\DOCUMENTS\REPOSITORIES\VISUAL STUDIO\SPACE INVADERS\SPACEINVADERS\DEBUG\VC141.PDB
^C:\USERS\ANDREA\DOCUMENTS\REPOSITORIES\VISUAL STUDIO\SPACE INVADERS\SPACEINVADERS\WINDOW.CPP
C:\USERS\ANDREA\DOCUMENTS\REPOSITORIES\VISUAL STUDIO\SPACE INVADERS\SPACEINVADERS\DEBUG\VC141.PDB
^C:\USERS\ANDREA\DOCUMENTS\REPOSITORIES\VISUAL STUDIO\SPACE INVADERS\SPACEINVADERS\ALIENHOARD.CPP|C:\USERS\ANDREA\DOCUMENTS\REPOSITORIES\VISUAL STUDIO\SPACE INVADERS\SPACEINVADERS\GAMESTATEFUNCS.CPP|C:\USERS\ANDREA\DOCUMENTS\REPOSITORIES\VISUAL STUDIO\SPACE INVADERS\SPACEINVADERS\MAIN.CPP|C:\USERS\ANDREA\DOCUMENTS\REPOSITORIES\VISUAL STUDIO\SPACE INVADERS\SPACEINVADERS\RENDERFUNCS.CPP|C:\USERS\ANDREA\DOCUMENTS\REPOSITORIES\VISUAL STUDIO\SPACE INVADERS\SPACEINVADERS\TEXTURE.CPP
C:\USERS\ANDREA\DOCUMENTS\REPOSITORIES\VISUAL STUDIO\SPACE INVADERS\SPACEINVADERS\DEBUG\VC141.PDB
C:\USERS\ANDREA\DOCUMENTS\REPOSITORIES\VISUAL STUDIO\SPACE INVADERS\SPACEINVADERS\DEBUG\VC141.IDB
C:\USERS\ANDREA\DOCUMENTS\REPOSITORIES\VISUAL STUDIO\SPACE INVADERS\SPACEINVADERS\DEBUG\GAMESTATEFUNCS.OBJ
C:\USERS\ANDREA\DOCUMENTS\REPOSITORIES\VISUAL STUDIO\SPACE INVADERS\SPACEINVADERS\DEBUG\RENDERFUNCS.OBJ
C:\USERS\ANDREA\DOCUMENTS\REPOSITORIES\VISUAL STUDIO\SPACE INVADERS\SPACEINVADERS\DEBUG\TEXTURE.OBJ
C:\USERS\ANDREA\DOCUMENTS\REPOSITORIES\VISUAL STUDIO\SPACE INVADERS\SPACEINVADERS\DEBUG\MAIN.OBJ
