^C:\USERS\TASHY\DOCUMENTS\REPOSITORYS\PROJECTS\VISUALSTUDIO\SPACEINVADERS\SPACEINVADERS\DEBUG\ALIEN.OBJ|C:\USERS\TASHY\DOCUMENTS\REPOSITORYS\PROJECTS\VISUALSTUDIO\SPACEINVADERS\SPACEINVADERS\DEBUG\ALIENHOARD.OBJ|C:\USERS\TASHY\DOCUMENTS\REPOSITORYS\PROJECTS\VISUALSTUDIO\SPACEINVADERS\SPACEINVADERS\DEBUG\ALIENMISSILE.OBJ|C:\USERS\TASHY\DOCUMENTS\REPOSITORYS\PROJECTS\VISUALSTUDIO\SPACEINVADERS\SPACEINVADERS\DEBUG\ALIENMISSILES.OBJ|C:\USERS\TASHY\DOCUMENTS\REPOSITORYS\PROJECTS\VISUALSTUDIO\SPACEINVADERS\SPACEINVADERS\DEBUG\BGAMEOBJECT.OBJ|C:\USERS\TASHY\DOCUMENTS\REPOSITORYS\PROJECTS\VISUALSTUDIO\SPACEINVADERS\SPACEINVADERS\DEBUG\FONT.OBJ|C:\USERS\TASHY\DOCUMENTS\REPOSITORYS\PROJECTS\VISUALSTUDIO\SPACEINVADERS\SPACEINVADERS\DEBUG\GAMESTATEFUNCS.OBJ|C:\USERS\TASHY\DOCUMENTS\REPOSITORYS\PROJECTS\VISUALSTUDIO\SPACEINVADERS\SPACEINVADERS\DEBUG\MAIN.OBJ|C:\USERS\TASHY\DOCUMENTS\REPOSITORYS\PROJECTS\VISUALSTUDIO\SPACEINVADERS\SPACEINVADERS\DEBUG\MOTHERSHIP.OBJ|C:\USERS\TASHY\DOCUMENTS\REPOSITORYS\PROJECTS\VISUALSTUDIO\SPACEINVADERS\SPACEINVADERS\DEBUG\PLAYER.OBJ|C:\USERS\TASHY\DOCUMENTS\REPOSITORYS\PROJECTS\VISUALSTUDIO\SPACEINVADERS\SPACEINVADERS\DEBUG\PLAYERMISSILE.OBJ|C:\USERS\TASHY\DOCUMENTS\REPOSITORYS\PROJECTS\VISUALSTUDIO\SPACEINVADERS\SPACEINVADERS\DEBUG\RENDERFUNCS.OBJ|C:\USERS\TASHY\DOCUMENTS\REPOSITORYS\PROJECTS\VISUALSTUDIO\SPACEINVADERS\SPACEINVADERS\DEBUG\SDLWRAPPER.OBJ|C:\USERS\TASHY\DOCUMENTS\REPOSITORYS\PROJECTS\VISUALSTUDIO\SPACEINVADERS\SPACEINVADERS\DEBUG\SHIELD.OBJ|C:\USERS\TASHY\DOCUMENTS\REPOSITORYS\PROJECTS\VISUALSTUDIO\SPACEINVADERS\SPACEINVADERS\DEBUG\SHIELDARRAY.OBJ|C:\USERS\TASHY\DOCUMENTS\REPOSITORYS\PROJECTS\VISUALSTUDIO\SPACEINVADERS\SPACEINVADERS\DEBUG\TEXTURE.OBJ|C:\USERS\TASHY\DOCUMENTS\REPOSITORYS\PROJECTS\VISUALSTUDIO\SPACEINVADERS\SPACEINVADERS\DEBUG\TIMER.OBJ|C:\USERS\TASHY\DOCUMENTS\REPOSITORYS\PROJECTS\VISUALSTUDIO\SPACEINVADERS\SPACEINVADERS\DEBUG\WINDOW.OBJ
/OUT:"C:\USERS\TASHY\DOCUMENTS\REPOSITORYS\PROJECTS\VISUALSTUDIO\SPACEINVADERS\DEBUG\SPACEINVADERS.EXE" /INCREMENTAL /NOLOGO SDL2.LIB SDL2MAIN.LIB SDL2_IMAGE.LIB SDL2_TTF.LIB SDL2_MIXER.LIB KERNEL32.LIB USER32.LIB GDI32.LIB WINSPOOL.LIB COMDLG32.LIB ADVAPI32.LIB SHELL32.LIB OLE32.LIB OLEAUT32.LIB UUID.LIB ODBC32.LIB ODBCCP32.LIB /MANIFEST /MANIFESTUAC:"level='asInvoker' uiAccess='false'" /manifest:embed /DEBUG:FASTLINK /PDB:"C:\USERS\TASHY\DOCUMENTS\REPOSITORYS\PROJECTS\VISUALSTUDIO\SPACEINVADERS\DEBUG\SPACEINVADERS.PDB" /SUBSYSTEM:CONSOLE /TLBID:1 /DYNAMICBASE /NXCOMPAT /IMPLIB:"C:\USERS\TASHY\DOCUMENTS\REPOSITORYS\PROJECTS\VISUALSTUDIO\SPACEINVADERS\DEBUG\SPACEINVADERS.LIB" /MACHINE:X86 DEBUG\ALIEN.OBJDEBUG\ALIENHOARD.OBJDEBUG\ALIENMISSILE.OBJDEBUG\ALIENMISSILES.OBJDEBUG\BGAMEOBJECT.OBJDEBUG\FONT.OBJDEBUG\GAMESTATEFUNCS.OBJDEBUG\MAIN.OBJDEBUG\MOTHERSHIP.OBJDEBUG\PLAYER.OBJDEBUG\PLAYERMISSILE.OBJDEBUG\RENDERFUNCS.OBJDEBUG\SDLWRAPPER.OBJDEBUG\SHIELD.OBJDEBUG\SHIELDARRAY.OBJDEBUG\TEXTURE.OBJDEBUG\TIMER.OBJDEBUG\WINDOW.OBJ
^C:\USERS\ANDREA\DOCUMENTS\REPOSITORIES\VISUAL STUDIO\SPACE INVADERS\SPACEINVADERS\DEBUG\ALIEN.OBJ|C:\USERS\ANDREA\DOCUMENTS\REPOSITORIES\VISUAL STUDIO\SPACE INVADERS\SPACEINVADERS\DEBUG\ALIENHOARD.OBJ|C:\USERS\ANDREA\DOCUMENTS\REPOSITORIES\VISUAL STUDIO\SPACE INVADERS\SPACEINVADERS\DEBUG\ALIENMISSILE.OBJ|C:\USERS\ANDREA\DOCUMENTS\REPOSITORIES\VISUAL STUDIO\SPACE INVADERS\SPACEINVADERS\DEBUG\ALIENMISSILES.OBJ|C:\USERS\ANDREA\DOCUMENTS\REPOSITORIES\VISUAL STUDIO\SPACE INVADERS\SPACEINVADERS\DEBUG\BGAMEOBJECT.OBJ|C:\USERS\ANDREA\DOCUMENTS\REPOSITORIES\VISUAL STUDIO\SPACE INVADERS\SPACEINVADERS\DEBUG\FONT.OBJ|C:\USERS\ANDREA\DOCUMENTS\REPOSITORIES\VISUAL STUDIO\SPACE INVADERS\SPACEINVADERS\DEBUG\GAMESTATEFUNCS.OBJ|C:\USERS\ANDREA\DOCUMENTS\REPOSITORIES\VISUAL STUDIO\SPACE INVADERS\SPACEINVADERS\DEBUG\MAIN.OBJ|C:\USERS\ANDREA\DOCUMENTS\REPOSITORIES\VISUAL STUDIO\SPACE INVADERS\SPACEINVADERS\DEBUG\MOTHERSHIP.OBJ|C:\USERS\ANDREA\DOCUMENTS\REPOSITORIES\VISUAL STUDIO\SPACE INVADERS\SPACEINVADERS\DEBUG\PLAYER.OBJ|C:\USERS\ANDREA\DOCUMENTS\REPOSITORIES\VISUAL STUDIO\SPACE INVADERS\SPACEINVADERS\DEBUG\PLAYERMISSILE.OBJ|C:\USERS\ANDREA\DOCUMENTS\REPOSITORIES\VISUAL STUDIO\SPACE INVADERS\SPACEINVADERS\DEBUG\RENDERFUNCS.OBJ|C:\USERS\ANDREA\DOCUMENTS\REPOSITORIES\VISUAL STUDIO\SPACE INVADERS\SPACEINVADERS\DEBUG\SDLWRAPPER.OBJ|C:\USERS\ANDREA\DOCUMENTS\REPOSITORIES\VISUAL STUDIO\SPACE INVADERS\SPACEINVADERS\DEBUG\SHIELD.OBJ|C:\USERS\ANDREA\DOCUMENTS\REPOSITORIES\VISUAL STUDIO\SPACE INVADERS\SPACEINVADERS\DEBUG\SHIELDARRAY.OBJ|C:\USERS\ANDREA\DOCUMENTS\REPOSITORIES\VISUAL STUDIO\SPACE INVADERS\SPACEINVADERS\DEBUG\TEXTURE.OBJ|C:\USERS\ANDREA\DOCUMENTS\REPOSITORIES\VISUAL STUDIO\SPACE INVADERS\SPACEINVADERS\DEBUG\TIMER.OBJ|C:\USERS\ANDREA\DOCUMENTS\REPOSITORIES\VISUAL STUDIO\SPACE INVADERS\SPACEINVADERS\DEBUG\WINDOW.OBJ
/OUT:"C:\USERS\ANDREA\DOCUMENTS\REPOSITORIES\VISUAL STUDIO\SPACE INVADERS\DEBUG\SPACEINVADERS.EXE" /INCREMENTAL /NOLOGO SDL2.LIB SDL2MAIN.LIB SDL2_IMAGE.LIB SDL2_TTF.LIB SDL2_MIXER.LIB KERNEL32.LIB USER32.LIB GDI32.LIB WINSPOOL.LIB COMDLG32.LIB ADVAPI32.LIB SHELL32.LIB OLE32.LIB OLEAUT32.LIB UUID.LIB ODBC32.LIB ODBCCP32.LIB /MANIFEST /MANIFESTUAC:"level='asInvoker' uiAccess='false'" /manifest:embed /DEBUG:FASTLINK /PDB:"C:\USERS\ANDREA\DOCUMENTS\REPOSITORIES\VISUAL STUDIO\SPACE INVADERS\DEBUG\SPACEINVADERS.PDB" /SUBSYSTEM:CONSOLE /TLBID:1 /DYNAMICBASE /NXCOMPAT /IMPLIB:"C:\USERS\ANDREA\DOCUMENTS\REPOSITORIES\VISUAL STUDIO\SPACE INVADERS\DEBUG\SPACEINVADERS.LIB" /MACHINE:X86 DEBUG\ALIEN.OBJDEBUG\ALIENHOARD.OBJDEBUG\ALIENMISSILE.OBJDEBUG\ALIENMISSILES.OBJDEBUG\BGAMEOBJECT.OBJDEBUG\FONT.OBJDEBUG\GAMESTATEFUNCS.OBJDEBUG\MAIN.OBJDEBUG\MOTHERSHIP.OBJDEBUG\PLAYER.OBJDEBUG\PLAYERMISSILE.OBJDEBUG\RENDERFUNCS.OBJDEBUG\SDLWRAPPER.OBJDEBUG\SHIELD.OBJDEBUG\SHIELDARRAY.OBJDEBUG\TEXTURE.OBJDEBUG\TIMER.OBJDEBUG\WINDOW.OBJ
