^C:\Users\Andrea\Documents\Repositories\Visual Studio\Space Invaders\SpaceInvaders\SpaceInvaders.vcxproj
C:\Users\Andrea\Documents\Repositories\Visual Studio\Space Invaders\Debug\SpaceInvaders.lib
C:\Users\Andrea\Documents\Repositories\Visual Studio\Space Invaders\Debug\SpaceInvaders.exp
^C:\Users\Andrea\Documents\Repositories\Visual Studio\Space Invaders\SpaceInvaders\SpaceInvaders.vcxproj
C:\Users\Andrea\Documents\Repositories\Visual Studio\Space Invaders\Debug\SpaceInvaders.lib
C:\Users\Andrea\Documents\Repositories\Visual Studio\Space Invaders\Debug\SpaceInvaders.exp
^C:\Users\Andrea\Documents\Repositories\Visual Studio\Space Invaders\SpaceInvaders\SpaceInvaders.vcxproj
C:\Users\Andrea\Documents\Repositories\Visual Studio\Space Invaders\Debug\SpaceInvaders.lib
C:\Users\Andrea\Documents\Repositories\Visual Studio\Space Invaders\Debug\SpaceInvaders.exp
^C:\Users\Andrea\Documents\Repositories\Visual Studio\Space Invaders\SpaceInvaders\SpaceInvaders.vcxproj
C:\Users\Andrea\Documents\Repositories\Visual Studio\Space Invaders\Debug\SpaceInvaders.lib
C:\Users\Andrea\Documents\Repositories\Visual Studio\Space Invaders\Debug\SpaceInvaders.exp
^C:\Users\Andrea\Documents\Repositories\Visual Studio\Space Invaders\SpaceInvaders\SpaceInvaders.vcxproj
C:\Users\Andrea\Documents\Repositories\Visual Studio\Space Invaders\Debug\SpaceInvaders.lib
C:\Users\Andrea\Documents\Repositories\Visual Studio\Space Invaders\Debug\SpaceInvaders.exp
^C:\Users\Andrea\Documents\Repositories\Visual Studio\Space Invaders\SpaceInvaders\SpaceInvaders.vcxproj
C:\Users\Andrea\Documents\Repositories\Visual Studio\Space Invaders\Debug\SpaceInvaders.lib
C:\Users\Andrea\Documents\Repositories\Visual Studio\Space Invaders\Debug\SpaceInvaders.exp
^C:\Users\Andrea\Documents\Repositories\Visual Studio\Space Invaders\SpaceInvaders\SpaceInvaders.vcxproj
C:\Users\Andrea\Documents\Repositories\Visual Studio\Space Invaders\Debug\SpaceInvaders.lib
C:\Users\Andrea\Documents\Repositories\Visual Studio\Space Invaders\Debug\SpaceInvaders.exp
^C:\Users\Andrea\Documents\Repositories\Visual Studio\Space Invaders\SpaceInvaders\SpaceInvaders.vcxproj
C:\Users\Andrea\Documents\Repositories\Visual Studio\Space Invaders\Debug\SpaceInvaders.lib
C:\Users\Andrea\Documents\Repositories\Visual Studio\Space Invaders\Debug\SpaceInvaders.exp
^C:\Users\Andrea\Documents\Repositories\Visual Studio\Space Invaders\SpaceInvaders\SpaceInvaders.vcxproj
C:\Users\Andrea\Documents\Repositories\Visual Studio\Space Invaders\Debug\SpaceInvaders.lib
C:\Users\Andrea\Documents\Repositories\Visual Studio\Space Invaders\Debug\SpaceInvaders.exp
^C:\Users\Andrea\Documents\Repositories\Visual Studio\Space Invaders\SpaceInvaders\SpaceInvaders.vcxproj
C:\Users\Andrea\Documents\Repositories\Visual Studio\Space Invaders\Debug\SpaceInvaders.lib
C:\Users\Andrea\Documents\Repositories\Visual Studio\Space Invaders\Debug\SpaceInvaders.exp
^C:\Users\Andrea\Documents\Repositories\Visual Studio\Space Invaders\SpaceInvaders\SpaceInvaders.vcxproj
C:\Users\Andrea\Documents\Repositories\Visual Studio\Space Invaders\Debug\SpaceInvaders.lib
C:\Users\Andrea\Documents\Repositories\Visual Studio\Space Invaders\Debug\SpaceInvaders.exp
^C:\Users\Andrea\Documents\Repositories\Visual Studio\Space Invaders\SpaceInvaders\SpaceInvaders.vcxproj
C:\Users\Andrea\Documents\Repositories\Visual Studio\Space Invaders\Debug\SpaceInvaders.lib
C:\Users\Andrea\Documents\Repositories\Visual Studio\Space Invaders\Debug\SpaceInvaders.exp
^C:\Users\Andrea\Documents\Repositories\Visual Studio\Space Invaders\SpaceInvaders\SpaceInvaders.vcxproj
C:\Users\Andrea\Documents\Repositories\Visual Studio\Space Invaders\Debug\SpaceInvaders.lib
C:\Users\Andrea\Documents\Repositories\Visual Studio\Space Invaders\Debug\SpaceInvaders.exp
